…
olink_df_reverse_ligand = olink_df_ligand %>% 
  mutate(contrast = contrast_tbl$contrast[2], logFC = -1*logFC)
olink_df_ligand = olink_df_ligand %>% 
  bind_rows(olink_df_reverse_ligand)
olink_df_ligand %>% filter(ligand == "IFNG") # sanity check
## # A tibble: 2 × 5
##   ligand logFC      pval olink_type contrast
##   <chr>  <dbl>     <dbl> <chr>      <chr>   
## 1 IFNG    3.36 0.0000776 Diorio     M-S     
## 2 IFNG   -3.36 0.0000776 Diorio     S-M
olink_df_ligand %>% arrange(-logFC) # sanity check
## # A tibble: 388 × 5
##    ligand   logFC     pval olink_type contrast
##    <chr>    <dbl>    <dbl> <chr>      <chr>   
##  1 GZMB      4.09 5.64e- 7 Diorio     M-S     
##  2 CEACAM21  3.43 8.95e- 8 Diorio     M-S     
##  3 IFNG      3.36 7.76e- 5 Diorio     M-S     
##  4 CD14      3.34 2.47e- 6 Diorio     M-S     
##  5 SPON2     3.17 3.05e- 7 Diorio     M-S     
##  6 BST2      3.00 6.84e- 9 Diorio     M-S     
##  7 NID1      2.97 1.34e-12 Diorio     M-S     
##  8 CCL3      2.95 4.52e-11 Diorio     M-S     
##  9 TNFSF14   2.77 4.86e-14 Diorio     M-S     
## 10 S100A12   2.66 5.23e-11 Diorio     M-S     
## # ℹ 378 more rows
```
…
Let's now inspect the top interactions that got the highest increase in ranking because of the OLINK data


```r
comparison_table %>% 
  arrange(-difference) %>% 
  filter(new_score > 0.80)
## # A tibble: 168 × 5
##    group id                                                      prioritization_score new_score difference
##    <chr> <chr>                                                                  <dbl>     <dbl>      <dbl>
##  1 M     LILRB4_LAIR1_M_Monocyte_CD16_L_T_TIM3._CD38._HLADR.                    0.777     0.807     0.0296
##  2 M     TNFSF13_TNFRSF14_M_Monocyte_CD16_M_Monocyte_CD16                       0.771     0.800     0.0296
##  3 M     RETN_TLR4_M_Monocyte_CD16_M_Monocyte_CD16                              0.787     0.815     0.0282
##  4 M     CCL3_CCR5_L_T_TIM3._CD38._HLADR._L_T_TIM3._CD38._HLADR.                0.776     0.804     0.0271
##  5 M     CCL3_CCR1_L_NK_CD56._CD16._L_T_TIM3._CD38._HLADR.                      0.777     0.804     0.0271
##  6 M     TNFSF13_FAS_M_Monocyte_CD16_M_Monocyte_CD16                            0.795     0.821     0.0261
##  7 M     TIMD4_SIGLEC9_L_T_TIM3._CD38._HLADR._M_Monocyte_CD16                   0.789     0.815     0.0257
##  8 M     TIMD4_SIGLEC7_L_T_TIM3._CD38._HLADR._M_Monocyte_CD16                   0.796     0.821     0.0247
##  9 M     TIMP1_CD63_M_Monocyte_CD16_L_T_TIM3._CD38._HLADR.                      0.798     0.822     0.0245
## 10 M     BST2_LILRA5_M_Monocyte_CD16_M_Monocyte_CD16                            0.790     0.813     0.0238
## # ℹ 158 more rows
```

Let's now inspect the top interactions that got penalized the most because of the OLINK data. Note here: interactions can be penalized because they are less upregulated at the protein level, or because there was no protein expression information for them.


```r
comparison_table %>% 
  arrange(difference) %>% 
  filter(new_score > 0.80)
## # A tibble: 168 × 5
##    group id                                                 prioritization_score new_score difference
##    <chr> <chr>                                                             <dbl>     <dbl>      <dbl>
##  1 S     TGFBI_ITGA4_M_Monocyte_CD16_M_Monocyte_CD16                       0.919     0.809    -0.110 
##  2 S     TGFBI_ITGB1_M_Monocyte_CD16_L_T_TIM3._CD38._HLADR.                0.917     0.807    -0.109 
##  3 M     S100A8_CD69_M_Monocyte_CD16_L_T_TIM3._CD38._HLADR.                0.943     0.880    -0.0631
##  4 M     S100A9_CD68_M_Monocyte_CD16_M_Monocyte_CD16                       0.920     0.860    -0.0598
##  5 M     S100A8_CD68_M_Monocyte_CD16_M_Monocyte_CD16                       0.912     0.853    -0.0586
##  6 S     HLA.DQA1_CD4_M_Monocyte_CD16_M_Monocyte_CD16                      0.909     0.851    -0.0582
##  7 S     SEMA4A_PLXNB2_M_Monocyte_CD16_M_Monocyte_CD16                     0.905     0.848    -0.0577
##  8 M     HLA.F_KLRC1_M_Monocyte_CD16_L_NK_CD56._CD16.                      0.901     0.844    -0.0572
##  9 S     GNAS_ADRB2_M_Monocyte_CD16_L_NK_CD56._CD16.                       0.901     0.844    -0.0570
## 10 M     HLA.F_LILRB1_M_Monocyte_CD16_M_Monocyte_CD16                      0.900     0.843    -0.0570
## # ℹ 158 more rows
```
…
olink_df_reverse = olink_df %>% 
  mutate(contrast = contrast_tbl$contrast[2], logFC = -1*logFC)
olink_df = olink_df %>% 
  bind_rows(olink_df_reverse)
olink_df %>% filter(gene == "IFNG") # sanity check
## # A tibble: 2 × 5
##   gene  logFC      pval olink_type contrast
##   <chr> <dbl>     <dbl> <chr>      <chr>   
## 1 IFNG   3.36 0.0000776 Diorio     M-S     
## 2 IFNG  -3.36 0.0000776 Diorio     S-M
olink_df %>% arrange(-logFC) # sanity check
## # A tibble: 2,926 × 5
##    gene     logFC     pval olink_type contrast
##    <chr>    <dbl>    <dbl> <chr>      <chr>   
##  1 PLA2G2A   7.01 2.16e-21 Diorio     M-S     
##  2 NTproBNP  6.02 7.31e-14 Diorio     M-S     
##  3 CXCL11    5.79 2.03e-13 Diorio     M-S     
##  4 CCL7      5.72 2.16e-15 Diorio     M-S     
##  5 CXCL10    5.64 5.35e-18 Diorio     M-S     
##  6 MMP8      5.53 1.77e-16 Diorio     M-S     
##  7 CALCA     5.47 2.67e-16 Diorio     M-S     
##  8 VSIG4     5.34 7.42e-16 Diorio     M-S     
##  9 OSM       4.85 3.24e-12 Diorio     M-S     
## 10 CXCL9     4.64 8.18e-15 Diorio     M-S     
## # ℹ 2,916 more rows
```
…
