…
First: get the target genes of prioritized ligand-receptor pairs (here focused on the overall top50 prioritized LR pairs that were visualized in the Circos ChordDiagrams above)

```r
lr_target_prior = prioritized_tbl_oi_all %>% inner_join(
        multinichenet_output$ligand_activities_targets_DEgenes$ligand_activities %>%
          distinct(ligand, target, direction_regulation, contrast) %>% inner_join(contrast_tbl) %>% ungroup() 
        ) 
lr_target_df = lr_target_prior %>% distinct(group, sender, receiver, ligand, receptor, id, target, direction_regulation) 
```

Second, subset on ligands/receptors as target genes

```r
lr_target_df %>% filter(target %in% union(lr_network$ligand, lr_network$receptor))
## # A tibble: 486 × 8
##    group sender                 receiver         ligand receptor id                        target direction_regulation
##    <chr> <chr>                  <chr>            <chr>  <chr>    <chr>                     <chr>  <fct>               
##  1 M     M_Monocyte_CD16        L_NK_CD56._CD16. HLA.E  KLRC1    HLA.E_KLRC1_M_Monocyte_C… AREG   up                  
##  2 M     M_Monocyte_CD16        L_NK_CD56._CD16. HLA.E  KLRC1    HLA.E_KLRC1_M_Monocyte_C… CD55   up                  
##  3 M     M_Monocyte_CD16        L_NK_CD56._CD16. HLA.E  KLRC1    HLA.E_KLRC1_M_Monocyte_C… KLRC1  up                  
##  4 M     M_Monocyte_CD16        L_NK_CD56._CD16. HLA.E  KLRC1    HLA.E_KLRC1_M_Monocyte_C… S100A8 up                  
##  5 M     M_Monocyte_CD16        L_NK_CD56._CD16. HLA.E  KLRC1    HLA.E_KLRC1_M_Monocyte_C… SLC1A5 up                  
##  6 M     M_Monocyte_CD16        L_NK_CD56._CD16. HLA.E  KLRC1    HLA.E_KLRC1_M_Monocyte_C… TFRC   up                  
##  7 M     M_Monocyte_CD16        L_NK_CD56._CD16. HLA.E  KLRC1    HLA.E_KLRC1_M_Monocyte_C… TIMP1  down                
##  8 M     L_T_TIM3._CD38._HLADR. M_Monocyte_CD16  IFNG   IFNGR1   IFNG_IFNGR1_L_T_TIM3._CD… B2M    up                  
##  9 M     L_T_TIM3._CD38._HLADR. M_Monocyte_CD16  IFNG   IFNGR1   IFNG_IFNGR1_L_T_TIM3._CD… BTN3A1 up                  
## 10 M     L_T_TIM3._CD38._HLADR. M_Monocyte_CD16  IFNG   IFNGR1   IFNG_IFNGR1_L_T_TIM3._CD… C1QB   up                  
## # ℹ 476 more rows
```
…
```r
colors_sender["L_T_TIM3._CD38._HLADR."] = "pink" # the  original yellow background with white font is not very readable
network_graph = visualize_network(network, colors_sender)
network_graph$plot
```

<img src="basic_analysis_steps_MISC_files/figure-html/unnamed-chunk-70-1.png" width="100%" />

As can be expected, we see fewer links here than in the previously generated intercellular regulatory network. The links that are not present anymore in this network are those ligand-target links that are not supported by high across-sample expression correlation. In conclusion, the links visualized here are the most trustworthy ones, since they are both supported by prior knowledge and expression correlation.

Interestingly, ligands/receptors visualized in this network can be considered as **additionally prioritized** because they are not only a prioritized ligand/receptor but also a target gene of another prioritized ligand-receptor interaction! So, we can also use this network to further prioritize differential CCC interactions. We can get these interactions as follows:

```r
network$prioritized_lr_interactions
## # A tibble: 27 × 5
##    group sender                 receiver        ligand receptor
##    <chr> <chr>                  <chr>           <chr>  <chr>   
##  1 M     M_Monocyte_CD16        M_Monocyte_CD16 B2M    LILRB1  
##  2 M     M_Monocyte_CD16        M_Monocyte_CD16 HLA.A  LILRB1  
##  3 M     M_Monocyte_CD16        M_Monocyte_CD16 HLA.C  LILRB1  
##  4 M     M_Monocyte_CD16        M_Monocyte_CD16 S100A9 CD68    
##  5 M     M_Monocyte_CD16        M_Monocyte_CD16 HLA.F  LILRB1  
##  6 M     M_Monocyte_CD16        M_Monocyte_CD16 HLA.F  LILRB2  
##  7 M     M_Monocyte_CD16        M_Monocyte_CD16 LILRB2 IFNGR1  
##  8 M     L_T_TIM3._CD38._HLADR. M_Monocyte_CD16 SIRPG  CD47    
##  9 M     M_Monocyte_CD16        M_Monocyte_CD16 TNF    LTBR    
## 10 M     M_Monocyte_CD16        M_Monocyte_CD16 HEBP1  FPR2    
## # ℹ 17 more rows
```


```r
prioritized_tbl_oi_network = prioritized_tbl_oi_all %>% inner_join(
  network$prioritized_lr_interactions)
prioritized_tbl_oi_network
## # A tibble: 27 × 8
##    group sender                 receiver               ligand  receptor id    prioritization_score prioritization_rank
##    <chr> <chr>                  <chr>                  <chr>   <chr>    <chr>                <dbl>               <dbl>
##  1 M     M_Monocyte_CD16        L_NK_CD56._CD16.       HLA.E   KLRC1    HLA.…                0.956                   1
##  2 M     L_T_TIM3._CD38._HLADR. M_Monocyte_CD16        IFNG    IFNGR1   IFNG…                0.948                   2
##  3 M     L_T_TIM3._CD38._HLADR. M_Monocyte_CD16        IFNG    IFNGR2   IFNG…                0.928                   4
##  4 M     M_Monocyte_CD16        L_T_TIM3._CD38._HLADR. CXCL16  CXCR6    CXCL…                0.922                   5
##  5 M     M_Monocyte_CD16        L_T_TIM3._CD38._HLADR. HLA.E   CD8A     HLA.…                0.919                   7
##  6 M     M_Monocyte_CD16        M_Monocyte_CD16        S100A9  CD68     S100…                0.917                   8
##  7 M     M_Monocyte_CD16        L_T_TIM3._CD38._HLADR. HLA.DRA LAG3     HLA.…                0.910                   9
##  8 M     M_Monocyte_CD16        M_Monocyte_CD16        HLA.F   LILRB1   HLA.…                0.903                  11
##  9 M     M_Monocyte_CD16        M_Monocyte_CD16        TNF     LTBR     TNF_…                0.902                  12
## 10 M     M_Monocyte_CD16        M_Monocyte_CD16        HLA.F   LILRB2   HLA.…                0.898                  15
## # ℹ 17 more rows
```
…
