…
## # Groups:   sample, receiver [10]
##    sample receiver  n_cells_receiver group  keep_receiver
##    <chr>  <chr>                <int> <fct>          <dbl>
##  1 HN16   Malignant               82 High               1
##  2 HN17   Malignant              353 High               1
##  3 HN18   Malignant              263 Medium             1
##  4 HN20   Malignant              331 Low                1
##  5 HN22   Malignant              123 Medium             1
##  6 HN25   Malignant              153 Medium             1
##  7 HN26   Malignant               61 Low                1
##  8 HN28   Malignant               49 Medium             1
##  9 HN5    Malignant               70 Medium             1
## 10 HN6    Malignant              157 Low                1
abundance_expression_info$abundance_data_sender # in the case of an all-vs-all analysis: both are the same
## # A tibble: 44 x 5
## # Groups:   sample, sender [44]
##    sample sender        n_cells_sender group keep_sender
##    <chr>  <chr>                  <int> <fct>       <dbl>
##  1 HN16   CAF                       47 High            1
##  2 HN16   Endothelial               43 High            1
##  3 HN16   Myeloid                   15 High            1
##  4 HN16   myofibroblast             84 High            1
##  5 HN16   T.cell                   300 High            1
##  6 HN17   CAF                       37 High            1
##  7 HN17   Endothelial               17 High            1
##  8 HN17   Myeloid                    2 High            0
##  9 HN17   myofibroblast              6 High            1
## 10 HN17   T.cell                    61 High            1
## # ... with 34 more rows
```

**Important**: Based on the cell type abundance diagnostics, we
recommend users to change their analysis settings if required, before
proceeding with the rest of the analysis.

### Interpretation of expression information

Previously, we also calculated expression information. With the
following piece of code, you can check the average expression for each
gene per sample (normalized expression value and fraction of expressing
cells with non-zero counts).

``` r
abundance_expression_info$receiver_info$avg_df
## # A tibble: 207,510 x 4
##    gene         sample average_sample celltype 
##    <chr>        <chr>           <dbl> <fct>    
##  1 C9orf152     HN26           0      Malignant
##  2 RPS11        HN26           2.91   Malignant
##  3 ELMO2        HN26           0.434  Malignant
##  4 CREB3L1      HN26           0.0733 Malignant
##  5 PNMA1        HN26           0.575  Malignant
##  6 MMP2         HN26           0.0345 Malignant
##  7 TMEM216      HN26           0.458  Malignant
##  8 TRAF3IP2-AS1 HN26           0.404  Malignant
##  9 LRRC37A5P    HN26           0      Malignant
## 10 LOC653712    HN26           0.164  Malignant
## # ... with 207,500 more rows
abundance_expression_info$receiver_info$frq_df
## # A tibble: 207,510 x 4
##    gene         sample fraction_sample celltype 
##    <chr>        <chr>            <dbl> <chr>    
##  1 C9orf152     HN26            0      Malignant
##  2 RPS11        HN26            0.967  Malignant
##  3 ELMO2        HN26            0.262  Malignant
##  4 CREB3L1      HN26            0.0820 Malignant
##  5 PNMA1        HN26            0.230  Malignant
##  6 MMP2         HN26            0.0328 Malignant
##  7 TMEM216      HN26            0.197  Malignant
##  8 TRAF3IP2-AS1 HN26            0.689  Malignant
##  9 LRRC37A5P    HN26            0      Malignant
## 10 LOC653712    HN26            0.230  Malignant
## # ... with 207,500 more rows

abundance_expression_info$sender_info$avg_df
## # A tibble: 1,037,550 x 4
##    gene         sample average_sample celltype     
##    <chr>        <chr>           <dbl> <fct>        
##  1 C9orf152     HN28           0      myofibroblast
##  2 RPS11        HN28           2.67   myofibroblast
##  3 ELMO2        HN28           0.276  myofibroblast
##  4 CREB3L1      HN28           0      myofibroblast
##  5 PNMA1        HN28           0.580  myofibroblast
##  6 MMP2         HN28           0.0636 myofibroblast
##  7 TMEM216      HN28           0.0891 myofibroblast
##  8 TRAF3IP2-AS1 HN28           0.589  myofibroblast
##  9 LRRC37A5P    HN28           0      myofibroblast
## 10 LOC653712    HN28           0.0747 myofibroblast
## # ... with 1,037,540 more rows
abundance_expression_info$sender_info$frq_df
## # A tibble: 1,037,550 x 4
##    gene         sample fraction_sample celltype     
##    <chr>        <chr>            <dbl> <chr>        
##  1 C9orf152     HN28            0      myofibroblast
##  2 RPS11        HN28            0.957  myofibroblast
##  3 ELMO2        HN28            0.157  myofibroblast
##  4 CREB3L1      HN28            0      myofibroblast
##  5 PNMA1        HN28            0.243  myofibroblast
##  6 MMP2         HN28            0.05   myofibroblast
##  7 TMEM216      HN28            0.0429 myofibroblast
##  8 TRAF3IP2-AS1 HN28            0.593  myofibroblast
##  9 LRRC37A5P    HN28            0      myofibroblast
## 10 LOC653712    HN28            0.0929 myofibroblast
## # ... with 1,037,540 more rows
```

Now for the average per group:

``` r
abundance_expression_info$receiver_info$avg_df_group
## # A tibble: 62,253 x 4
## # Groups:   group, celltype [3]
##    group celltype  gene     average_group
##    <fct> <fct>     <chr>            <dbl>
##  1 High  Malignant A1BG           0.121  
##  2 High  Malignant A1BG-AS1       0.0193 
##  3 High  Malignant A1CF           0.00430
##  4 High  Malignant A2M            0.147  
##  5 High  Malignant A2M-AS1        0.00216
##  6 High  Malignant A2ML1          0.101  
##  7 High  Malignant A2MP1          0      
##  8 High  Malignant A4GALT         0.176  
##  9 High  Malignant A4GNT          0      
## 10 High  Malignant AAAS           0.698  
## # ... with 62,243 more rows
abundance_expression_info$receiver_info$frq_df_group
## # A tibble: 62,253 x 4
## # Groups:   group, celltype [3]
##    group celltype  gene     fraction_group
##    <fct> <chr>     <chr>             <dbl>
##  1 High  Malignant A1BG            0.0719 
##  2 High  Malignant A1BG-AS1        0.0179 
##  3 High  Malignant A1CF            0.103  
##  4 High  Malignant A2M             0.120  
##  5 High  Malignant A2M-AS1         0.00142
##  6 High  Malignant A2ML1           0.249  
##  7 High  Malignant A2MP1           0      
##  8 High  Malignant A4GALT          0.143  
##  9 High  Malignant A4GNT           0      
## 10 High  Malignant AAAS            0.352  
## # ... with 62,243 more rows

abundance_expression_info$sender_info$avg_df_group
## # A tibble: 311,265 x 4
## # Groups:   group, celltype [15]
##    group celltype gene     average_group
##    <fct> <fct>    <chr>            <dbl>
##  1 High  CAF      A1BG           0.241  
##  2 High  CAF      A1BG-AS1       0.0573 
##  3 High  CAF      A1CF           0.00447
##  4 High  CAF      A2M            1.07   
##  5 High  CAF      A2M-AS1        0.0331 
##  6 High  CAF      A2ML1          0.0269 
##  7 High  CAF      A2MP1          0      
##  8 High  CAF      A4GALT         0.252  
##  9 High  CAF      A4GNT          0      
## 10 High  CAF      AAAS           0.121  
## # ... with 311,255 more rows
abundance_expression_info$sender_info$frq_df_group
## # A tibble: 311,265 x 4
## # Groups:   group, celltype [15]
##    group celltype gene     fraction_group
##    <fct> <chr>    <chr>             <dbl>
##  1 High  CAF      A1BG             0.179 
##  2 High  CAF      A1BG-AS1         0.0426
##  3 High  CAF      A1CF             0.0589
##  4 High  CAF      A2M              0.489 
##  5 High  CAF      A2M-AS1          0.0426
##  6 High  CAF      A2ML1            0.174 
##  7 High  CAF      A2MP1            0     
##  8 High  CAF      A4GALT           0.152 
##  9 High  CAF      A4GNT            0     
## 10 High  CAF      AAAS             0.0561
## # ... with 311,255 more rows
```

In the last part of this step, we combined this information for each
ligand-receptor pair combination for each sender-receiver combination.
The output of this can be seen as well:

For sample-based:

``` r
abundance_expression_info$sender_receiver_info$avg_df
## # A tibble: 60,300 x 8
##    sample sender        receiver  ligand receptor avg_ligand avg_receptor ligand_receptor_prod
##    <chr>  <fct>         <fct>     <chr>  <chr>         <dbl>        <dbl>                <dbl>
##  1 HN17   CAF           Malignant COL1A1 ITGB1          3.43         2.72                 9.34
##  2 HN17   CAF           Malignant COL1A1 SDC1           3.43         2.53                 8.69
##  3 HN17   myofibroblast Malignant COL1A1 ITGB1          3.17         2.72                 8.61
##  4 HN17   CAF           Malignant COL1A1 CD44           3.43         2.34                 8.02
##  5 HN17   myofibroblast Malignant COL1A1 SDC1           3.17         2.53                 8.01
##  6 HN20   CAF           Malignant COL1A1 SDC1           3.22         2.42                 7.78
##  7 HN17   myofibroblast Malignant COL1A1 CD44           3.17         2.34                 7.39
##  8 HN20   CAF           Malignant FN1    SDC1           2.85         2.42                 6.89
##  9 HN16   CAF           Malignant COL1A1 ITGB1          2.60         2.63                 6.83
## 10 HN17   Myeloid       Malignant ADAM17 ITGB1          2.51         2.72                 6.82
## # ... with 60,290 more rows
abundance_expression_info$sender_receiver_info$frq_df
## # A tibble: 60,300 x 8
##    sample sender        receiver  ligand receptor fraction_ligand fraction_receptor ligand_receptor_fraction_prod
##    <chr>  <chr>         <chr>     <chr>  <chr>              <dbl>             <dbl>                         <dbl>
##  1 HN28   Myeloid       Malignant COL1A1 CD44                   1             1                             1    
##  2 HN28   Myeloid       Malignant LAMA2  RPSA                   1             1                             1    
##  3 HN28   Myeloid       Malignant FN1    CD44                   1             1                             1    
##  4 HN28   Myeloid       Malignant HAS2   CD44                   1             1                             1    
##  5 HN28   Myeloid       Malignant LAMC3  CD44                   1             1                             1    
##  6 HN28   Myeloid       Malignant LAMB2  RPSA                   1             1                             1    
##  7 HN20   Endothelial   Malignant F11R   F11R                   1             0.997                         0.997
##  8 HN17   myofibroblast Malignant THBS1  SDC1                   1             0.994                         0.994
##  9 HN17   myofibroblast Malignant COL1A1 ITGB1                  1             0.994                         0.994
## 10 HN17   myofibroblast Malignant COL1A1 SDC1                   1             0.994                         0.994
## # ... with 60,290 more rows
```

For group-based:

``` r
abundance_expression_info$sender_receiver_info$avg_df_group
## # A tibble: 18,090 x 8
## # Groups:   group, sender [15]
##    group sender        receiver  ligand receptor avg_ligand_group avg_receptor_group ligand_receptor_prod_group
##    <fct> <fct>         <fct>     <chr>  <chr>               <dbl>              <dbl>                      <dbl>
##  1 High  CAF           Malignant COL1A1 ITGB1                3.02               2.67                       8.07
##  2 High  CAF           Malignant COL1A1 SDC1                 3.02               2.26                       6.81
##  3 High  CAF           Malignant COL1A1 CD44                 3.02               2.17                       6.56
##  4 High  myofibroblast Malignant COL1A1 ITGB1                2.34               2.67                       6.25
##  5 Low   CAF           Malignant COL1A1 SDC1                 2.75               2.22                       6.11
##  6 High  Endothelial   Malignant CD99   CD99                 2.32               2.43                       5.64
##  7 High  myofibroblast Malignant THBS1  SDC1                 2.46               2.26                       5.55
##  8 High  Endothelial   Malignant COL4A1 ITGB1                2.04               2.67                       5.46
##  9 Low   CAF           Malignant COL1A1 CD44                 2.75               1.96                       5.39
## 10 High  CAF           Malignant FN1    ITGB1                2.01               2.67                       5.36
## # ... with 18,080 more rows
abundance_expression_info$sender_receiver_info$frq_df_group
## # A tibble: 18,090 x 8
## # Groups:   group, sender [15]
##    group sender        receiver  ligand receptor fraction_ligand_group fraction_receptor_group ligand_receptor_fraction_prod_group
##    <fct> <chr>         <chr>     <chr>  <chr>                    <dbl>                   <dbl>                               <dbl>
##  1 High  Myeloid       Malignant F11R   F11R                     1                       0.981                               0.981
##  2 High  CAF           Malignant COL1A1 ITGB1                    0.957                   0.979                               0.937
##  3 High  myofibroblast Malignant THBS1  CD47                     0.976                   0.939                               0.917
##  4 High  CAF           Malignant COL1A1 CD44                     0.957                   0.953                               0.913
##  5 High  T.cell        Malignant F11R   F11R                     0.924                   0.981                               0.906
##  6 High  Endothelial   Malignant F11R   F11R                     0.906                   0.981                               0.889
##  7 Low   CAF           Malignant HLA-E  KLRD1                    0.970                   0.912                               0.885
##  8 High  Endothelial   Malignant HLA-E  KLRD1                    1                       0.876                               0.876
##  9 High  Myeloid       Malignant HLA-E  KLRD1                    1                       0.876                               0.876
## 10 Low   CAF           Malignant COL1A1 SDC1                     0.972                   0.902                               0.876
## # ... with 18,080 more rows
```
…
``` r
DE_info_sender = get_DE_info(seurat_obj = seurat_obj_sender, sample_id = sample_id, group_id = group_id, celltype_id = celltype_id_sender, covariates = covariates, contrasts_oi = contrasts_oi, min_cells = min_cells)
## [1] "excluded cell types are:"
## [1] "Endothelial" "Myeloid"     "T.cell"     
## [1] "These celltypes are not considered in the analysis. After removing samples that contain less cells than the required minimal, some groups don't have 2 or more samples anymore. As a result the analysis cannot be run. To solve this: decrease the number of min_cells or change your group_id and pool all samples that belong to groups that are not of interest! "
```

### Check DE results

Table with logFC and p-values for each gene-celltype-contrast:

``` r
DE_info_receiver$celltype_de$de_output_tidy
## # A tibble: 44,481 x 9
##    gene         cluster_id   logFC logCPM       F  p_val p_adj.loc p_adj contrast           
##    <chr>        <chr>        <dbl>  <dbl>   <dbl>  <dbl>     <dbl> <dbl> <chr>              
##  1 RPS11        Malignant  -0.0106   8.91 0.00475 0.946      0.992     1 High-(Medium+Low)/2
##  2 ELMO2        Malignant   0.0411   5.81 0.0107  0.919      0.987     1 High-(Medium+Low)/2
##  3 CREB3L1      Malignant  -6.2      2.78 4.77    0.0505     0.59      1 High-(Medium+Low)/2
##  4 PNMA1        Malignant  -0.91     5.83 1.99    0.185      0.74      1 High-(Medium+Low)/2
##  5 MMP2         Malignant   1.69     6.33 6.54    0.0258     0.536     1 High-(Medium+Low)/2
##  6 TMEM216      Malignant  -0.393    5.9  0.607   0.452      0.869     1 High-(Medium+Low)/2
##  7 TRAF3IP2-AS1 Malignant  -0.333    4.39 0.515   0.487      0.884     1 High-(Medium+Low)/2
##  8 LOC653712    Malignant   0.839    2.79 1.13    0.309      0.808     1 High-(Medium+Low)/2
##  9 ZHX3         Malignant   0.0272   3.75 0.0028  0.959      0.994     1 High-(Medium+Low)/2
## 10 ERCC5        Malignant   0.385    5.6  1.11    0.313      0.809     1 High-(Medium+Low)/2
## # ... with 44,471 more rows
```

``` r
DE_info_sender$celltype_de$de_output_tidy
## # A tibble: 58,119 x 9
##    gene         cluster_id   logFC logCPM       F p_val p_adj.loc p_adj contrast           
##    <chr>        <chr>        <dbl>  <dbl>   <dbl> <dbl>     <dbl> <dbl> <chr>              
##  1 RPS11        CAF        -0.0696   9.29 0.0663  0.8       0.958     1 High-(Medium+Low)/2
##  2 ELMO2        CAF         0.308    6.64 0.439   0.518     0.885     1 High-(Medium+Low)/2
##  3 CREB3L1      CAF         0.319    5.45 0.0785  0.783     0.953     1 High-(Medium+Low)/2
##  4 PNMA1        CAF        -0.947    6.51 2.59    0.13      0.676     1 High-(Medium+Low)/2
##  5 MMP2         CAF         0.0535   9.28 0.0447  0.836     0.964     1 High-(Medium+Low)/2
##  6 TMEM216      CAF        -0.203    6    0.11    0.745     0.943     1 High-(Medium+Low)/2
##  7 TRAF3IP2-AS1 CAF        -0.625    5.54 0.888   0.362     0.826     1 High-(Medium+Low)/2
##  8 ZHX3         CAF        -0.0565   5.47 0.00652 0.937     0.985     1 High-(Medium+Low)/2
##  9 ERCC5        CAF        -0.0511   6.08 0.00536 0.943     0.987     1 High-(Medium+Low)/2
## 10 APBB2        CAF         0.193    6.47 0.158   0.697     0.929     1 High-(Medium+Low)/2
## # ... with 58,109 more rows
```
…
Table with logFC and p-values for each gene-celltype-contrast:

``` r
DE_info_emp_receiver$de_output_tidy_emp
## # A tibble: 44,481 x 11
##    gene         cluster_id   logFC logCPM       F  p_val p_adj.loc p_adj contrast             p_emp p_adj_emp
##    <chr>        <chr>        <dbl>  <dbl>   <dbl>  <dbl>     <dbl> <dbl> <chr>                <dbl>     <dbl>
##  1 RPS11        Malignant  -0.0106   8.91 0.00475 0.946      0.992     1 High-(Medium+Low)/2 0.870      0.994
##  2 ELMO2        Malignant   0.0411   5.81 0.0107  0.919      0.987     1 High-(Medium+Low)/2 0.752      0.994
##  3 CREB3L1      Malignant  -6.2      2.78 4.77    0.0505     0.59      1 High-(Medium+Low)/2 0.124      0.917
##  4 PNMA1        Malignant  -0.91     5.83 1.99    0.185      0.74      1 High-(Medium+Low)/2 0.332      0.969
##  5 MMP2         Malignant   1.69     6.33 6.54    0.0258     0.536     1 High-(Medium+Low)/2 0.0255     0.766
##  6 TMEM216      Malignant  -0.393    5.9  0.607   0.452      0.869     1 High-(Medium+Low)/2 0.650      0.994
##  7 TRAF3IP2-AS1 Malignant  -0.333    4.39 0.515   0.487      0.884     1 High-(Medium+Low)/2 0.687      0.994
##  8 LOC653712    Malignant   0.839    2.79 1.13    0.309      0.808     1 High-(Medium+Low)/2 0.254      0.948
##  9 ZHX3         Malignant   0.0272   3.75 0.0028  0.959      0.994     1 High-(Medium+Low)/2 0.787      0.994
## 10 ERCC5        Malignant   0.385    5.6  1.11    0.313      0.809     1 High-(Medium+Low)/2 0.257      0.950
## # ... with 44,471 more rows
```
…
