…
It is often useful to zoom in on specific ligand-receptor interactions
of interest by looking in more detail to their expression at the single
cell level

Check the highest scoring links based on the general prioritization
score. Here we will pick one of those to visualize.

``` r
prioritized_tbl_oi = multinichenet_output$prioritization_tables$group_prioritization_tbl %>% 
  filter(fraction_ligand_group > fraction_cutoff & fraction_receptor_group > fraction_cutoff) %>% 
  distinct(id, sender, receiver, ligand, receptor, group, prioritization_score) %>% 
  group_by(group, receiver) %>% top_n(5, prioritization_score) 
prioritized_tbl_oi
## # A tibble: 30 x 7
## # Groups:   group, receiver [6]
##    group sender        receiver      ligand receptor id                                  prioritization_score
##    <chr> <chr>         <chr>         <chr>  <chr>    <chr>                                              <dbl>
##  1 High  CAF           Malignant     FN1    ITGB6    FN1_ITGB6_CAF_Malignant                             1.41
##  2 High  myofibroblast Malignant     FN1    ITGB6    FN1_ITGB6_myofibroblast_Malignant                   1.37
##  3 High  CAF           Malignant     TNC    ITGB6    TNC_ITGB6_CAF_Malignant                             1.37
##  4 High  Malignant     Malignant     TNC    ITGB6    TNC_ITGB6_Malignant_Malignant                       1.36
##  5 Low   myofibroblast Malignant     APOE   SORL1    APOE_SORL1_myofibroblast_Malignant                  1.32
##  6 High  Malignant     Malignant     IL20   IL20RB   IL20_IL20RB_Malignant_Malignant                     1.32
##  7 Low   Malignant     Malignant     POMC   MC1R     POMC_MC1R_Malignant_Malignant                       1.31
##  8 Low   Malignant     Malignant     WNT5A  FZD7     WNT5A_FZD7_Malignant_Malignant                      1.31
##  9 Low   myofibroblast Malignant     BMP2   ACVR2A   BMP2_ACVR2A_myofibroblast_Malignant                 1.30
## 10 High  Malignant     myofibroblast DLL1   NOTCH3   DLL1_NOTCH3_Malignant_myofibroblast                 1.29
## # ... with 20 more rows
```
…
## Zoom in on specific ligand-target interactions: show their expression in the single-cell data!

Make target gene violin and feature plots: `make_target_violin_plot` and
`make_target_feature_plot`

``` r
receiver_oi = "Malignant"
group_oi = "High"

multinichenet_output$ligand_activities_targets_DEgenes$de_genes_df %>% inner_join(contrast_tbl) %>% filter(p_val <= 0.05) %>% filter(group == group_oi) %>% filter(receiver == receiver_oi) %>% arrange(p_val) %>% top_n(100, logFC)  
## # A tibble: 100 x 7
##    gene   receiver  logFC   p_val p_adj contrast group
##    <chr>  <chr>     <dbl>   <dbl> <dbl> <chr>    <chr>
##  1 RAB31  Malignant  3    0.00200 0.999 High-Low High 
##  2 AHNAK2 Malignant  2.3  0.00260 0.999 High-Low High 
##  3 GSDMC  Malignant  3.19 0.00306 0.999 High-Low High 
##  4 ITGB6  Malignant  3.75 0.00433 0.999 High-Low High 
##  5 ITGA3  Malignant  1.85 0.00497 0.999 High-Low High 
##  6 CA2    Malignant  5.8  0.00562 0.999 High-Low High 
##  7 GALNT6 Malignant  1.76 0.00597 0.999 High-Low High 
##  8 KCNK6  Malignant  2.57 0.00681 0.999 High-Low High 
##  9 PLEK2  Malignant  1.93 0.00687 0.999 High-Low High 
## 10 GJB6   Malignant  3.33 0.00819 0.999 High-Low High 
## # ... with 90 more rows
```
…
