…
## Zoom in on specific ligand-target interactions: show their expression in the single-cell data!

Make target gene violin and feature plots: `make_target_violin_plot` and
`make_target_feature_plot`

``` r
receiver_oi = "Malignant"
group_oi = "High"

multinichenet_output$ligand_activities_targets_DEgenes$de_genes_df %>% inner_join(contrast_tbl) %>% filter(p_val <= 0.05) %>% filter(group == group_oi) %>% filter(receiver == receiver_oi) %>% arrange(p_val) %>% top_n(100, logFC)  
## # A tibble: 100 x 7
##    gene    receiver  logFC      p_val  p_adj contrast            group
##    <chr>   <chr>     <dbl>      <dbl>  <dbl> <chr>               <chr>
##  1 LTBP1   Malignant  2.6  0.00000233 0.0185 High-(Medium+Low)/2 High 
##  2 MMP10   Malignant  3    0.0000461  0.137  High-(Medium+Low)/2 High 
##  3 LPXN    Malignant  3.36 0.000386   0.413  High-(Medium+Low)/2 High 
##  4 LGALS9C Malignant  2.72 0.000479   0.413  High-(Medium+Low)/2 High 
##  5 CGB8    Malignant  4.35 0.000501   0.413  High-(Medium+Low)/2 High 
##  6 INHBA   Malignant  2.91 0.000637   0.413  High-(Medium+Low)/2 High 
##  7 NEFM    Malignant  6.49 0.000689   0.413  High-(Medium+Low)/2 High 
##  8 TAGLN   Malignant  2.48 0.000912   0.413  High-(Medium+Low)/2 High 
##  9 TGFB2   Malignant  3.19 0.00111    0.413  High-(Medium+Low)/2 High 
## 10 GCNT1   Malignant  3.03 0.00118    0.413  High-(Medium+Low)/2 High 
## # ... with 90 more rows
```
…
