…
```r
ligand_oi = "IFNG"
group_oi = "M"
lr_target_df %>% filter(ligand == ligand_oi & group == group_oi) %>% pull(target) %>% unique() %>% intersect(lr_network$ligand)
##  [1] "B2M"      "C1QB"     "CD55"     "CXCL16"   "HLA.A"    "HLA.B"    "HLA.C"    "HLA.DPB1" "HLA.DQB1" "HLA.DRA"  "HLA.DRB1" "HLA.E"    "HLA.F"    "IFITM1"   "IL32"     "NAMPT"    "S100A4"   "S100A8"   "TNF"      "TNFSF10"
```

Interestingly, we can also use this network to further prioritize differential CCC interactions. Here we will assume that the most important LR interactions are the ones that are involved in this intercellular regulatory network. We can get these interactions as follows:


```r
network$prioritized_lr_interactions
## # A tibble: 50 × 5
##    group sender                 receiver               ligand   receptor
##    <chr> <chr>                  <chr>                  <chr>    <chr>   
##  1 A     L_NK_CD56._CD16.       L_NK_CD56._CD16.       HLA.A    KIR3DL1 
##  2 A     L_NK_CD56._CD16.       L_NK_CD56._CD16.       HLA.A    KLRD1   
##  3 M     L_T_TIM3._CD38._HLADR. M_Monocyte_CD16        IFNG     IFNGR1  
##  4 M     L_T_TIM3._CD38._HLADR. M_Monocyte_CD16        IFNG     IFNGR2  
##  5 M     L_NK_CD56._CD16.       L_T_TIM3._CD38._HLADR. CCL4     CCR5    
##  6 M     M_Monocyte_CD16        M_Monocyte_CD16        TNF      LTBR    
##  7 A     L_NK_CD56._CD16.       L_NK_CD56._CD16.       HLA.A    KIR3DL2 
##  8 M     M_Monocyte_CD16        L_T_TIM3._CD38._HLADR. HLA.DRB5 LAG3    
##  9 M     M_Monocyte_CD16        L_T_TIM3._CD38._HLADR. HLA.DPB1 LAG3    
## 10 M     M_Monocyte_CD16        L_T_TIM3._CD38._HLADR. HLA.DRA  LAG3    
## # ℹ 40 more rows
```


```r
prioritized_tbl_oi_network = prioritized_tbl_oi %>% inner_join(
  network$prioritized_lr_interactions)
prioritized_tbl_oi_network
## # A tibble: 50 × 8
##    group sender                 receiver               ligand   receptor id                                                   prioritization_score prioritization_rank
##    <chr> <chr>                  <chr>                  <chr>    <chr>    <chr>                                                               <dbl>               <dbl>
##  1 A     L_NK_CD56._CD16.       L_NK_CD56._CD16.       HLA.A    KIR3DL1  HLA.A_KIR3DL1_L_NK_CD56._CD16._L_NK_CD56._CD16.                     0.950                   1
##  2 A     L_NK_CD56._CD16.       L_NK_CD56._CD16.       HLA.A    KLRD1    HLA.A_KLRD1_L_NK_CD56._CD16._L_NK_CD56._CD16.                       0.947                   2
##  3 M     L_T_TIM3._CD38._HLADR. M_Monocyte_CD16        IFNG     IFNGR1   IFNG_IFNGR1_L_T_TIM3._CD38._HLADR._M_Monocyte_CD16                  0.941                   3
##  4 M     L_T_TIM3._CD38._HLADR. M_Monocyte_CD16        IFNG     IFNGR2   IFNG_IFNGR2_L_T_TIM3._CD38._HLADR._M_Monocyte_CD16                  0.937                   4
##  5 M     L_NK_CD56._CD16.       L_T_TIM3._CD38._HLADR. CCL4     CCR5     CCL4_CCR5_L_NK_CD56._CD16._L_T_TIM3._CD38._HLADR.                   0.928                   5
##  6 M     M_Monocyte_CD16        M_Monocyte_CD16        TNF      LTBR     TNF_LTBR_M_Monocyte_CD16_M_Monocyte_CD16                            0.928                   6
##  7 A     L_NK_CD56._CD16.       L_NK_CD56._CD16.       HLA.A    KIR3DL2  HLA.A_KIR3DL2_L_NK_CD56._CD16._L_NK_CD56._CD16.                     0.923                   7
##  8 M     M_Monocyte_CD16        L_T_TIM3._CD38._HLADR. HLA.DRB5 LAG3     HLA.DRB5_LAG3_M_Monocyte_CD16_L_T_TIM3._CD38._HLADR.                0.923                   8
##  9 M     M_Monocyte_CD16        L_T_TIM3._CD38._HLADR. HLA.DPB1 LAG3     HLA.DPB1_LAG3_M_Monocyte_CD16_L_T_TIM3._CD38._HLADR.                0.922                   9
## 10 M     M_Monocyte_CD16        L_T_TIM3._CD38._HLADR. HLA.DRA  LAG3     HLA.DRA_LAG3_M_Monocyte_CD16_L_T_TIM3._CD38._HLADR.                 0.922                  10
## # ℹ 40 more rows
```
…
