…
If you want to look at the cell numbers behind these plots, you can do
so via the following piece of code

``` r
abundance_expression_info$abundance_data_receiver
## # A tibble: 54 x 5
## # Groups:   sample, receiver [54]
##    sample receiver      n_cells_receiver group keep_receiver
##    <chr>  <chr>                    <int> <chr>         <dbl>
##  1 HN16   CAF                         47 High              1
##  2 HN16   Endothelial                 43 High              1
##  3 HN16   Malignant                   82 High              1
##  4 HN16   Myeloid                     15 High              1
##  5 HN16   myofibroblast               84 High              1
##  6 HN16   T.cell                     300 High              1
##  7 HN17   CAF                         37 High              1
##  8 HN17   Endothelial                 17 High              1
##  9 HN17   Malignant                  353 High              1
## 10 HN17   Myeloid                      2 High              0
## # ... with 44 more rows
abundance_expression_info$abundance_data_sender # in the case of an all-vs-all analysis: both are the same
## # A tibble: 54 x 5
## # Groups:   sample, sender [54]
##    sample sender        n_cells_sender group keep_sender
##    <chr>  <chr>                  <int> <chr>       <dbl>
##  1 HN16   CAF                       47 High            1
##  2 HN16   Endothelial               43 High            1
##  3 HN16   Malignant                 82 High            1
##  4 HN16   Myeloid                   15 High            1
##  5 HN16   myofibroblast             84 High            1
##  6 HN16   T.cell                   300 High            1
##  7 HN17   CAF                       37 High            1
##  8 HN17   Endothelial               17 High            1
##  9 HN17   Malignant                353 High            1
## 10 HN17   Myeloid                    2 High            0
## # ... with 44 more rows
```

**Important**: Based on the cell type abundance diagnostics, we
recommend users to change their analysis settings if required, before
proceeding with the rest of the analysis.

### Interpretation of expression information

Previously, we also calculated expression information. With the
following piece of code, you can check the average expression for each
gene per sample (normalized expression value and fraction of expressing
cells with non-zero counts, and logCPM-pseudocounts).

``` r
abundance_expression_info$celltype_info$avg_df
## # A tibble: 1,245,060 x 4
##    gene         sample average_sample celltype     
##    <chr>        <chr>           <dbl> <fct>        
##  1 C9orf152     HN28           0      myofibroblast
##  2 RPS11        HN28           2.96   myofibroblast
##  3 ELMO2        HN28           0.311  myofibroblast
##  4 CREB3L1      HN28           0      myofibroblast
##  5 PNMA1        HN28           0.647  myofibroblast
##  6 MMP2         HN28           0.0724 myofibroblast
##  7 TMEM216      HN28           0.100  myofibroblast
##  8 TRAF3IP2-AS1 HN28           0.686  myofibroblast
##  9 LRRC37A5P    HN28           0      myofibroblast
## 10 LOC653712    HN28           0.0887 myofibroblast
## # ... with 1,245,050 more rows
abundance_expression_info$celltype_info$frq_df
## # A tibble: 1,245,060 x 4
##    gene         sample fraction_sample celltype     
##    <chr>        <chr>            <dbl> <chr>        
##  1 C9orf152     HN28            0      myofibroblast
##  2 RPS11        HN28            0.957  myofibroblast
##  3 ELMO2        HN28            0.157  myofibroblast
##  4 CREB3L1      HN28            0      myofibroblast
##  5 PNMA1        HN28            0.243  myofibroblast
##  6 MMP2         HN28            0.05   myofibroblast
##  7 TMEM216      HN28            0.0429 myofibroblast
##  8 TRAF3IP2-AS1 HN28            0.593  myofibroblast
##  9 LRRC37A5P    HN28            0      myofibroblast
## 10 LOC653712    HN28            0.0929 myofibroblast
## # ... with 1,245,050 more rows
abundance_expression_info$celltype_info$pb_df
## # A tibble: 1,120,554 x 4
##    gene         sample pb_sample celltype     
##    <chr>        <chr>      <dbl> <fct>        
##  1 C9orf152     HN16        0    myofibroblast
##  2 RPS11        HN16        9.14 myofibroblast
##  3 ELMO2        HN16        6.13 myofibroblast
##  4 CREB3L1      HN16        0    myofibroblast
##  5 PNMA1        HN16        6.28 myofibroblast
##  6 MMP2         HN16        1.67 myofibroblast
##  7 TMEM216      HN16        3.29 myofibroblast
##  8 TRAF3IP2-AS1 HN16        6.20 myofibroblast
##  9 LRRC37A5P    HN16        0    myofibroblast
## 10 LOC653712    HN16        3.92 myofibroblast
## # ... with 1,120,544 more rows
```

Now for the average per group:

``` r
abundance_expression_info$celltype_info$avg_df_group
## # A tibble: 249,012 x 4
## # Groups:   group, celltype [12]
##    group celltype gene     average_group
##    <chr> <fct>    <chr>            <dbl>
##  1 High  CAF      A1BG           0.154  
##  2 High  CAF      A1BG-AS1       0.0789 
##  3 High  CAF      A1CF           0.00821
##  4 High  CAF      A2M            1.29   
##  5 High  CAF      A2M-AS1        0.0571 
##  6 High  CAF      A2ML1          0.0443 
##  7 High  CAF      A2MP1          0      
##  8 High  CAF      A4GALT         0.382  
##  9 High  CAF      A4GNT          0.00176
## 10 High  CAF      AAAS           0.250  
## # ... with 249,002 more rows
abundance_expression_info$celltype_info$frq_df_group
## # A tibble: 249,012 x 4
## # Groups:   group, celltype [12]
##    group celltype gene     fraction_group
##    <chr> <chr>    <chr>             <dbl>
##  1 High  CAF      A1BG            0.103  
##  2 High  CAF      A1BG-AS1        0.0536 
##  3 High  CAF      A1CF            0.0739 
##  4 High  CAF      A2M             0.500  
##  5 High  CAF      A2M-AS1         0.0447 
##  6 High  CAF      A2ML1           0.207  
##  7 High  CAF      A2MP1           0      
##  8 High  CAF      A4GALT          0.215  
##  9 High  CAF      A4GNT           0.00386
## 10 High  CAF      AAAS            0.115  
## # ... with 249,002 more rows
abundance_expression_info$celltype_info$pb_df_group
## # A tibble: 249,012 x 4
## # Groups:   group, celltype [12]
##    group celltype gene     pb_group
##    <chr> <fct>    <chr>       <dbl>
##  1 High  CAF      A1BG        3.86 
##  2 High  CAF      A1BG-AS1    2.99 
##  3 High  CAF      A1CF        0.527
##  4 High  CAF      A2M         7.99 
##  5 High  CAF      A2M-AS1     2.55 
##  6 High  CAF      A2ML1       1.92 
##  7 High  CAF      A2MP1       0    
##  8 High  CAF      A4GALT      5.61 
##  9 High  CAF      A4GNT       0.157
## 10 High  CAF      AAAS        4.84 
## # ... with 249,002 more rows
```

In the last part of this step, we combined this information for each
ligand-receptor pair combination for each sender-receiver combination.
The output of this can be seen as well:

For sample-based:

``` r
abundance_expression_info$sender_receiver_info$avg_df
## # A tibble: 434,160 x 8
##    sample sender  receiver    ligand receptor avg_ligand avg_receptor ligand_receptor_prod
##    <chr>  <fct>   <fct>       <chr>  <chr>         <dbl>        <dbl>                <dbl>
##  1 HN26   Myeloid Myeloid     CCL19  CCR7           3.81         4.28                 16.3
##  2 HN22   Myeloid Myeloid     IL15   IL2RG          3.41         3.79                 12.9
##  3 HN26   Myeloid Myeloid     F11R   F11R           3.59         3.59                 12.9
##  4 HN17   Myeloid Endothelial NAMPT  INSR           3.59         3.47                 12.5
##  5 HN26   T.cell  T.cell      CD99   CD99           3.49         3.49                 12.1
##  6 HN22   Myeloid Myeloid     F11R   F11R           3.46         3.46                 12.0
##  7 HN26   Myeloid T.cell      IL15   IL2RG          3.31         3.53                 11.7
##  8 HN26   T.cell  Myeloid     CD99   CD99           3.49         3.33                 11.6
##  9 HN26   Myeloid T.cell      CD99   CD99           3.33         3.49                 11.6
## 10 HN26   Myeloid Myeloid     CD99   CD99           3.33         3.33                 11.1
## # ... with 434,150 more rows
abundance_expression_info$sender_receiver_info$frq_df
## # A tibble: 434,160 x 8
##    sample sender        receiver    ligand   receptor fraction_ligand fraction_receptor ligand_receptor_fraction_prod
##    <chr>  <chr>         <chr>       <chr>    <chr>              <dbl>             <dbl>                         <dbl>
##  1 HN26   myofibroblast Myeloid     GPI      AMFR                   1                 1                             1
##  2 HN22   myofibroblast Myeloid     CALR     SCARF1                 1                 1                             1
##  3 HN18   myofibroblast Myeloid     PSAP     GPR37L1                1                 1                             1
##  4 HN18   myofibroblast Endothelial CALR     SCARF1                 1                 1                             1
##  5 HN20   myofibroblast CAF         SERPING1 LRP1                   1                 1                             1
##  6 HN20   myofibroblast Endothelial CALM2    MYLK                   1                 1                             1
##  7 HN20   myofibroblast Endothelial GPI      AMFR                   1                 1                             1
##  8 HN20   myofibroblast CAF         A2M      LRP1                   1                 1                             1
##  9 HN20   myofibroblast Endothelial THBS1    CD36                   1                 1                             1
## 10 HN20   myofibroblast CAF         THBS1    SDC1                   1                 1                             1
## # ... with 434,150 more rows
abundance_expression_info$sender_receiver_info$pb_df
## # A tibble: 356,976 x 8
##    sample sender        receiver      ligand  receptor pb_ligand pb_receptor ligand_receptor_pb_prod
##    <chr>  <fct>         <fct>         <chr>   <chr>        <dbl>       <dbl>                   <dbl>
##  1 HN5    Myeloid       Myeloid       HLA-DRA CD4          10.7         9.40                   101. 
##  2 HN18   Myeloid       Myeloid       HLA-DRA CD4          10.6         9.19                    97.4
##  3 HN22   myofibroblast myofibroblast CALM2   MYLK         10.4         9.27                    96.6
##  4 HN17   CAF           CAF           COL1A1  ITGB1        10.2         9.45                    96.6
##  5 HN17   Myeloid       Endothelial   NAMPT   INSR          9.68        9.96                    96.5
##  6 HN17   CAF           Endothelial   COL1A1  ITGB1        10.2         9.41                    96.2
##  7 HN18   Myeloid       Myeloid       ITGB2   ICAM1         9.88        9.71                    95.9
##  8 HN18   Myeloid       Myeloid       ICAM1   ITGB2         9.71        9.88                    95.9
##  9 HN5    Myeloid       Myeloid       HLA-DMA CD4          10.2         9.40                    95.8
## 10 HN18   CAF           Myeloid       CTGF    ITGB2         9.62        9.88                    95.0
## # ... with 356,966 more rows
```

For group-based:

``` r
abundance_expression_info$sender_receiver_info$avg_df_group
## # A tibble: 86,832 x 8
## # Groups:   group, sender [12]
##    group sender        receiver      ligand receptor avg_ligand_group avg_receptor_group ligand_receptor_prod_group
##    <chr> <fct>         <fct>         <chr>  <chr>               <dbl>              <dbl>                      <dbl>
##  1 High  myofibroblast myofibroblast CALM2  MYLK                 3.48               2.23                       7.77
##  2 High  Myeloid       myofibroblast CALM2  MYLK                 3.38               2.23                       7.54
##  3 Low   CAF           myofibroblast COL1A1 ITGB1                3.04               2.40                       7.29
##  4 Low   myofibroblast myofibroblast CALM2  MYLK                 3.12               2.32                       7.24
##  5 Low   CAF           CAF           CD99   CD99                 2.68               2.68                       7.18
##  6 High  CAF           myofibroblast CALM2  MYLK                 3.08               2.23                       6.87
##  7 Low   CAF           myofibroblast CALM2  MYLK                 2.86               2.32                       6.65
##  8 Low   CAF           CAF           COL1A1 ITGB1                3.04               2.19                       6.65
##  9 High  Endothelial   Endothelial   CD99   CD99                 2.57               2.57                       6.60
## 10 High  CAF           myofibroblast COL1A1 ITGB1                2.67               2.44                       6.53
## # ... with 86,822 more rows
abundance_expression_info$sender_receiver_info$frq_df_group
## # A tibble: 86,832 x 8
## # Groups:   group, sender [12]
##    group sender      receiver    ligand   receptor fraction_ligand_group fraction_receptor_group ligand_receptor_fraction_prod_group
##    <chr> <chr>       <chr>       <chr>    <chr>                    <dbl>                   <dbl>                               <dbl>
##  1 High  Endothelial Endothelial PECAM1   PECAM1                   1                       1                                   1    
##  2 High  Endothelial Myeloid     HLA-E    KLRD1                    1                       0.956                               0.956
##  3 High  Myeloid     Myeloid     HLA-E    KLRD1                    1                       0.956                               0.956
##  4 Low   CAF         CAF         PSAP     LRP1                     0.992                   0.957                               0.949
##  5 Low   CAF         CAF         SERPING1 LRP1                     0.992                   0.957                               0.949
##  6 High  Myeloid     Myeloid     HLA-G    KLRD1                    0.986                   0.956                               0.942
##  7 High  Malignant   Myeloid     HLA-E    KLRD1                    0.985                   0.956                               0.941
##  8 Low   Malignant   CAF         LRPAP1   LRP1                     0.979                   0.957                               0.937
##  9 High  Endothelial Endothelial HLA-E    KLRD1                    1                       0.936                               0.936
## 10 High  Myeloid     Endothelial HLA-E    KLRD1                    1                       0.936                               0.936
## # ... with 86,822 more rows
abundance_expression_info$sender_receiver_info$pb_df_group
## # A tibble: 86,832 x 8
## # Groups:   group, sender [12]
##    group sender        receiver      ligand receptor pb_ligand_group pb_receptor_group ligand_receptor_pb_prod_group
##    <chr> <fct>         <fct>         <chr>  <chr>              <dbl>             <dbl>                         <dbl>
##  1 Low   T.cell        T.cell        CD99   CD99                9.64              9.64                          93.0
##  2 High  T.cell        myofibroblast CALM2  MYLK               10.1               8.98                          90.5
##  3 High  myofibroblast myofibroblast CALM2  MYLK                9.94              8.98                          89.3
##  4 Low   CAF           T.cell        CXCL12 CXCR4               8.71             10.2                           88.9
##  5 Low   T.cell        myofibroblast CALM2  MYLK                9.86              9.02                          88.9
##  6 High  Myeloid       myofibroblast CALM2  MYLK                9.85              8.98                          88.5
##  7 Low   myofibroblast myofibroblast CALM2  MYLK                9.73              9.02                          87.8
##  8 Low   CAF           T.cell        CD99   CD99                9.08              9.64                          87.6
##  9 Low   T.cell        CAF           CD99   CD99                9.64              9.08                          87.6
## 10 High  T.cell        myofibroblast CALM1  MYLK                9.72              8.98                          87.3
## # ... with 86,822 more rows
```
…
``` r
DE_info = get_DE_info(sce = sce, sample_id = sample_id, group_id = group_id, celltype_id = celltype_id, covariates = covariates, contrasts_oi = contrasts_oi, min_cells = min_cells)
## [1] "excluded cell types are:"
## [1] "Endothelial" "Myeloid"     "T.cell"     
## [1] "These celltypes are not considered in the analysis. After removing samples that contain less cells than the required minimal, some groups don't have 2 or more samples anymore. As a result the analysis cannot be run. To solve this: decrease the number of min_cells or change your group_id and pool all samples that belong to groups that are not of interest! "
```

### Check DE results

Table with logFC and p-values for each gene-celltype-contrast:

``` r
DE_info$celltype_de$de_output_tidy
## # A tibble: 64,162 x 9
##    gene         cluster_id   logFC logCPM      F  p_val p_adj.loc p_adj contrast
##    <chr>        <chr>        <dbl>  <dbl>  <dbl>  <dbl>     <dbl> <dbl> <chr>   
##  1 RPS11        CAF        -0.0666   9.29 0.0658 0.801          1 0.984 High-Low
##  2 ELMO2        CAF         0.726    6.64 2.31   0.149          1 0.743 High-Low
##  3 CREB3L1      CAF         0.149    5.44 0.0184 0.894          1 0.994 High-Low
##  4 PNMA1        CAF        -1.04     6.51 4.03   0.0634         1 0.573 High-Low
##  5 MMP2         CAF         0.162    9.28 0.422  0.526          1 0.951 High-Low
##  6 TMEM216      CAF        -1.34     6    5.85   0.0291         1 0.442 High-Low
##  7 TRAF3IP2-AS1 CAF        -0.496    5.54 0.718  0.41           1 0.924 High-Low
##  8 ZHX3         CAF        -0.207    5.46 0.103  0.753          1 0.979 High-Low
##  9 ERCC5        CAF         0.202    6.08 0.0925 0.765          1 0.982 High-Low
## 10 APBB2        CAF        -0.235    6.47 0.249  0.625          1 0.966 High-Low
## # ... with 64,152 more rows
```
…
**User adaptation recommended**

``` r
empirical_pval = TRUE
if(empirical_pval == TRUE){
  DE_info_emp = get_empirical_pvals(DE_info$celltype_de$de_output_tidy)
} 
```

Table with logFC and p-values for each gene-celltype-contrast:

``` r
DE_info_emp$de_output_tidy_emp
## # A tibble: 64,162 x 11
##    gene         cluster_id   logFC logCPM      F  p_val p_adj.loc p_adj contrast   p_emp p_adj_emp
##    <chr>        <chr>        <dbl>  <dbl>  <dbl>  <dbl>     <dbl> <dbl> <chr>      <dbl>     <dbl>
##  1 RPS11        CAF        -0.0666   9.29 0.0658 0.801          1 0.984 High-Low 0.748       0.991
##  2 ELMO2        CAF         0.726    6.64 2.31   0.149          1 0.743 High-Low 0.0864      0.991
##  3 CREB3L1      CAF         0.149    5.44 0.0184 0.894          1 0.994 High-Low 0.887       0.998
##  4 PNMA1        CAF        -1.04     6.51 4.03   0.0634         1 0.573 High-Low 0.0246      0.991
##  5 MMP2         CAF         0.162    9.28 0.422  0.526          1 0.951 High-Low 0.457       0.991
##  6 TMEM216      CAF        -1.34     6    5.85   0.0291         1 0.442 High-Low 0.00834     0.991
##  7 TRAF3IP2-AS1 CAF        -0.496    5.54 0.718  0.41           1 0.924 High-Low 0.314       0.991
##  8 ZHX3         CAF        -0.207    5.46 0.103  0.753          1 0.979 High-Low 0.692       0.991
##  9 ERCC5        CAF         0.202    6.08 0.0925 0.765          1 0.982 High-Low 0.733       0.991
## 10 APBB2        CAF        -0.235    6.47 0.249  0.625          1 0.966 High-Low 0.545       0.991
## # ... with 64,152 more rows
```
…
