…
```r
network_graph = visualize_network(network, colors_sender)
network_graph$plot
```

<img src="batch_correction_analysis_LungAtlas_files/figure-html/unnamed-chunk-247-1.png" width="100%" />

Interestingly, we can also use this network to further prioritize differential CCC interactions. Here we will assume that the most important LR interactions are the ones that are involved in this intercellular regulatory network. We can get these interactions as follows:


```r
network$prioritized_lr_interactions
## # A tibble: 60 × 5
##    group                         sender                   receiver   ligand receptor
##    <chr>                         <chr>                    <chr>      <chr>  <chr>   
##  1 idiopathic.pulmonary.fibrosis Fibroblast               Fibroblast A2M    MMP2    
##  2 idiopathic.pulmonary.fibrosis Proliferating.Macrophage Fibroblast SPP1   ITGA8   
##  3 idiopathic.pulmonary.fibrosis Proliferating.Macrophage Fibroblast FN1    ITGA8   
##  4 idiopathic.pulmonary.fibrosis Fibroblast               Fibroblast FN1    ITGA8   
##  5 idiopathic.pulmonary.fibrosis Fibroblast               Fibroblast FN1    SDC2    
##  6 idiopathic.pulmonary.fibrosis Fibroblast               Fibroblast COL1A1 ITGA1   
##  7 idiopathic.pulmonary.fibrosis Fibroblast               Fibroblast SLIT3  ROBO2   
##  8 idiopathic.pulmonary.fibrosis Fibroblast               Fibroblast COL6A3 ITGA1   
##  9 idiopathic.pulmonary.fibrosis Fibroblast               Fibroblast COL4A1 ITGB1   
## 10 idiopathic.pulmonary.fibrosis CD16..Monocyte           Fibroblast ITM2B  ROR2    
## # ℹ 50 more rows
```


```r
prioritized_tbl_oi_network = prioritized_tbl_oi %>% inner_join(
  network$prioritized_lr_interactions)
prioritized_tbl_oi_network
## # A tibble: 60 × 8
##    group                         sender                   receiver                 ligand  receptor id                                       prioritization_score prioritization_rank
##    <chr>                         <chr>                    <chr>                    <chr>   <chr>    <chr>                                                   <dbl>               <dbl>
##  1 idiopathic.pulmonary.fibrosis Fibroblast               Fibroblast               ITM2B   ROR2     ITM2B_ROR2_Fibroblast_Fibroblast                        0.912                   1
##  2 normal                        CD16..Monocyte           CD16..Monocyte           IL10    IL10RA   IL10_IL10RA_CD16..Monocyte_CD16..Monocy…                0.910                   2
##  3 idiopathic.pulmonary.fibrosis Fibroblast               Proliferating.Macrophage COL14A1 CD44     COL14A1_CD44_Fibroblast_Proliferating.M…                0.907                   5
##  4 idiopathic.pulmonary.fibrosis Fibroblast               CD16..Monocyte           CXCL12  CXCR4    CXCL12_CXCR4_Fibroblast_CD16..Monocyte                  0.906                   6
##  5 idiopathic.pulmonary.fibrosis Fibroblast               Fibroblast               BMP4    ACVR1    BMP4_ACVR1_Fibroblast_Fibroblast                        0.904                   7
##  6 idiopathic.pulmonary.fibrosis Fibroblast               Fibroblast               A2M     MMP2     A2M_MMP2_Fibroblast_Fibroblast                          0.903                   8
##  7 idiopathic.pulmonary.fibrosis Fibroblast               Fibroblast               SLIT3   ROBO2    SLIT3_ROBO2_Fibroblast_Fibroblast                       0.898                  10
##  8 idiopathic.pulmonary.fibrosis Fibroblast               Fibroblast               SLIT3   ROBO1    SLIT3_ROBO1_Fibroblast_Fibroblast                       0.898                  11
##  9 idiopathic.pulmonary.fibrosis Proliferating.Macrophage Proliferating.Macrophage SPP1    CD44     SPP1_CD44_Proliferating.Macrophage_Prol…                0.895                  12
## 10 idiopathic.pulmonary.fibrosis Fibroblast               Fibroblast               COL6A3  ITGA1    COL6A3_ITGA1_Fibroblast_Fibroblast                      0.895                  13
## # ℹ 50 more rows
```
…
## targets with more DE in BC condition
pval_df_targets %>% 
  filter(logFC_BC > 0) %>% 
  mutate(prop = p_adj_BC/p_adj_noBC, prop_logFC = logFC_noBC/logFC_BC) %>% 
  mutate(prop_pval_logFC = prop*prop_logFC) %>% 
  arrange(prop_pval_logFC) %>% 
  filter(prop < 1 & p_adj_noBC > 0.05 & p_adj_BC < 0.05) 
## # A tibble: 178 × 9
##    gene    cluster_id     p_adj_noBC logFC_noBC  p_adj_BC logFC_BC     prop prop_logFC prop_pval_logFC
##    <chr>   <chr>               <dbl>      <dbl>     <dbl>    <dbl>    <dbl>      <dbl>           <dbl>
##  1 MCL1    CD16..Monocyte     0.94     -0.274   0.0425       0.532 0.0452      -0.515        -0.0233  
##  2 MYLK    Fibroblast         0.741    -0.262   0.0455       0.817 0.0614      -0.321        -0.0197  
##  3 TGM2    Fibroblast         0.679    -0.29    0.0217       0.694 0.0320      -0.418        -0.0134  
##  4 MCL1    Fibroblast         0.861    -0.319   0.0147       0.811 0.0171      -0.393        -0.00672 
##  5 CD81    Fibroblast         0.993    -0.00883 0.00615      0.54  0.00619     -0.0164       -0.000101
##  6 TSC22D1 Fibroblast         0.144     0.578   0.0000329    1     0.000228     0.578         0.000132
##  7 A2M     Fibroblast         0.426     0.534   0.000148     1.32  0.000347     0.405         0.000141
##  8 ITM2B   CD16..Monocyte     0.554     0.292   0.000945     0.58  0.00171      0.503         0.000859
##  9 FHL1    Fibroblast         0.968     0.0367  0.0165       0.613 0.0170       0.0599        0.00102 
## 10 WLS     Fibroblast         0.0636    0.651   0.000112     0.841 0.00176      0.774         0.00136 
## # ℹ 168 more rows
…
