…
## targets with more DE in BC condition
pval_df_targets %>% mutate(prop = p_adj_BC/p_adj_noBC)  %>% arrange(-prop) %>% filter(prop < 1 & p_adj_noBC > 0.05 & p_adj_BC < 0.05) 
## # A tibble: 78 x 5
##    gene      cluster_id               p_adj_noBC p_adj_BC  prop
##    <chr>     <chr>                         <dbl>    <dbl> <dbl>
##  1 EZR       Proliferating.Macrophage     0.0562   0.0385 0.685
##  2 FRMD4B    Proliferating.Macrophage     0.058    0.0396 0.683
##  3 TNFRSF10D Proliferating.Macrophage     0.0654   0.0395 0.604
##  4 APOE      Fibroblast                   0.0514   0.0246 0.479
##  5 IL1RN     Proliferating.Macrophage     0.0861   0.0398 0.462
##  6 IGF1      Fibroblast                   0.114    0.0499 0.438
##  7 S100A9    Proliferating.Macrophage     0.118    0.0498 0.422
##  8 MERTK     Proliferating.Macrophage     0.0528   0.0216 0.409
##  9 ACSL4     Proliferating.Macrophage     0.0758   0.0286 0.377
## 10 SPARC     Proliferating.Macrophage     0.0841   0.0298 0.354
## # ... with 68 more rows
…
Define BC-specific DE genes in Fibroblasts

``` r
targets_oi = pval_df_targets %>% mutate(prop = p_adj_BC/p_adj_noBC)  %>% arrange(-prop) %>% filter(prop < 1 & p_adj_noBC > 0.05 & p_adj_BC < 0.05) %>% filter(cluster_id == "Fibroblast") %>% pull(gene)
targets_oi %>% tibble(gene = .) 
## # A tibble: 25 x 1
##    gene  
##    <chr> 
##  1 APOE  
##  2 IGF1  
##  3 CD9   
##  4 TCF4  
##  5 CDH11 
##  6 PALLD 
##  7 COL6A3
##  8 ITGA8 
##  9 PLTP  
## 10 LUM   
## # ... with 15 more rows
```
…
