…
```r
combined_prioritization_tables = list(
  group_prioritization_tbl = bind_rows(
    prioritization_tables_with_condition_specific_celltype_receiver$group_prioritization_tbl %>% filter(receiver %in% condition_specific_celltypes),
    prioritization_tables_with_condition_specific_celltype_sender$group_prioritization_tbl %>% filter(sender %in% condition_specific_celltypes)
  ) %>% 
    bind_rows(
      prioritization_tables$group_prioritization_tbl
  ) %>% arrange(-prioritization_score) %>% distinct()

)
combined_prioritization_tables %>% head()
## $group_prioritization_tbl
## # A tibble: 4,940 × 18
##    contrast  group sender                 receiver               ligand  receptor lr_interaction id    scaled_lfc_ligand scaled_p_val_ligand_…¹ scaled_lfc_receptor scaled_p_val_recepto…² max_scaled_activity scaled_pb_ligand scaled_pb_receptor fraction_expressing_…³ prioritization_score top_group
##    <chr>     <chr> <chr>                  <chr>                  <chr>   <chr>    <chr>          <chr>             <dbl>                  <dbl>               <dbl>                  <dbl>               <dbl>            <dbl>              <dbl>                  <dbl>                <dbl> <chr>    
##  1 M-(S+A)/2 M     M_Monocyte_CD16        L_T_TIM3._CD38._HLADR. HLA.DRA CD82     HLA.DRA_CD82   HLA.…             0.883                  0.978              0.0343                 0.0343               0                1.00                1.00                  1                    0.983 M        
##  2 M-(S+A)/2 M     M_Monocyte_CD16        L_T_TIM3._CD38._HLADR. HLA.DRA LAG3     HLA.DRA_LAG3   HLA.…             0.883                  0.978              0.0952                 0.0952               0                1.00                1.00                  1                    0.983 M        
##  3 M-(S+A)/2 M     M_Monocyte_CD16        L_T_TIM3._CD38._HLADR. SELPLG  SELL     SELPLG_SELL    SELP…             0.836                  0.942              0.139                  0.139                0                1.00                1.00                  1                    0.973 M        
##  4 M-(S+A)/2 M     M_Monocyte_CD16        L_T_TIM3._CD38._HLADR. CD47    SIRPG    CD47_SIRPG     CD47…             0.816                  0.876              0.0497                 0.0497               0                1.00                1.00                  1                    0.962 M        
##  5 M-(S+A)/2 M     M_Monocyte_CD16        L_T_TIM3._CD38._HLADR. HLA.DR… CD82     HLA.DRB1_CD82  HLA.…             0.925                  0.996              0.0343                 0.0343               0                1.00                1.00                  0.857                0.955 M        
##  6 M-(S+A)/2 M     M_Monocyte_CD16        L_T_TIM3._CD38._HLADR. HLA.DR… LAG3     HLA.DRB1_LAG3  HLA.…             0.925                  0.996              0.0952                 0.0952               0                1.00                1.00                  0.857                0.955 M        
##  7 M-(S+A)/2 M     L_NK_CD56._CD16.       L_T_TIM3._CD38._HLADR. CCL3    CCR5     CCL3_CCR5      CCL3…             0.933                  0.968              0.0532                 0.0532               0                1.00                1.00                  0.857                0.952 M        
##  8 M-(S+A)/2 M     M_Monocyte_CD16        L_NK_CD56._CD16.       HLA.E   KLRC1    HLA.E_KLRC1    HLA.…             0.812                  0.983              0.951                  0.989                0.978            0.866               1.00                  1                    0.952 M        
##  9 M-(S+A)/2 M     M_Monocyte_CD16        L_T_TIM3._CD38._HLADR. HLA.F   CD8A     HLA.F_CD8A     HLA.…             0.885                  0.986              0.0399                 0.0399               0                1.00                1.00                  0.857                0.949 M        
## 10 M-(S+A)/2 M     L_T_TIM3._CD38._HLADR. M_Monocyte_CD16        IFNG    IFNGR1   IFNG_IFNGR1    IFNG…             0.129                  0.129              0.872                  0.891                1.00             1.00                1.00                  0.857                0.948 M        
## # ℹ 4,930 more rows
## # ℹ abbreviated names: ¹​scaled_p_val_ligand_adapted, ²​scaled_p_val_receptor_adapted, ³​fraction_expressing_ligand_receptor
…
