…
Let's now inspect some of the top interactions that got much higher scores in the E group


```r
comparison_table %>% 
  arrange(-difference_group1_vs_group2) %>% 
  filter(prioritization_score_group1 > 0.80)
## # A tibble: 852 × 5
##    group      id                                        prioritization_score_group1 prioritization_score_group2 difference_group1_vs_group2
##    <chr>      <chr>                                                           <dbl>                       <dbl>                       <dbl>
##  1 timepoint2 CCL5_CCR1_Fibroblast_macrophages                                0.844                       0.375                       0.468
##  2 timepoint2 BST2_LILRA5_Fibroblast_macrophages                              0.830                       0.365                       0.465
##  3 timepoint2 CDH2_CDH2_Fibroblast_Fibroblast                                 0.806                       0.351                       0.455
##  4 timepoint2 CCL2_CCR2_Fibroblast_macrophages                                0.838                       0.397                       0.441
##  5 timepoint2 CCL5_SDC4_Fibroblast_macrophages                                0.853                       0.425                       0.427
##  6 timepoint2 CCL5_CCR5_Fibroblast_macrophages                                0.800                       0.374                       0.426
##  7 timepoint2 BST2_LILRB3_Fibroblast_macrophages                              0.924                       0.513                       0.411
##  8 timepoint2 TNFSF10_TNFRSF10B_macrophages_Fibroblast                        0.856                       0.447                       0.409
##  9 timepoint2 TNFSF10_TNFRSF10B_Fibroblast_Fibroblast                         0.830                       0.446                       0.384
## 10 timepoint2 TNFSF10_TNFRSF10B_macrophages_macrophages                       0.871                       0.509                       0.361
## # ℹ 842 more rows
```

Let's now inspect some of the top interactions that got much higher scores in the NE group


```r
comparison_table %>% 
  arrange(difference_group1_vs_group2) %>% 
  filter(prioritization_score_group2 > 0.80)
## # A tibble: 574 × 5
##    group      id                                   prioritization_score_group1 prioritization_score_group2 difference_group1_vs_group2
##    <chr>      <chr>                                                      <dbl>                       <dbl>                       <dbl>
##  1 timepoint2 IGF2_ITGA6_Fibroblast_macrophages                          0.366                       0.800                      -0.434
##  2 timepoint1 TIMP3_ADAM17_Fibroblast_macrophages                        0.518                       0.868                      -0.350
##  3 timepoint2 LAMB1_ITGA6_Fibroblast_macrophages                         0.471                       0.820                      -0.348
##  4 timepoint2 ANXA1_EGFR_CD4T_Fibroblast                                 0.583                       0.891                      -0.308
##  5 timepoint2 CCN1_ITGA6_Fibroblast_macrophages                          0.520                       0.818                      -0.298
##  6 timepoint2 PI16_TNFRSF21_Fibroblast_macrophages                       0.520                       0.814                      -0.294
##  7 timepoint2 MELTF_TFRC_macrophages_macrophages                         0.523                       0.815                      -0.292
##  8 timepoint2 IL2_IL2RG_CD4T_CD4T                                        0.550                       0.831                      -0.281
##  9 timepoint2 IL2_CD53_CD4T_CD4T                                         0.573                       0.853                      -0.280
## 10 timepoint1 LILRB2_CD33_macrophages_macrophages                        0.591                       0.864                      -0.273
## # ℹ 564 more rows
```
…
```r
colors_sender["Fibroblast"] = "pink" # the  original yellow background with white font is not very readable
network_graph = visualize_network(network, colors_sender)
network_graph$plot
```

<img src="multifactorial_analysis_BreastCancer_files/figure-html/unnamed-chunk-273-1.png" width="100%" />

Interestingly, we are only left with interactions that increase after therapy in the E group. This means that we don't find many intercellular regulatory connections for the other groups. In most cases, you will get this type of network for all conditions in your data.

Note: we can also use this network to further prioritize differential CCC interactions. Here we will assume that the most important LR interactions are the ones that are involved in this intercellular regulatory network. We can get these interactions as follows:

```r
network$prioritized_lr_interactions
## # A tibble: 61 × 5
##    group sender      receiver   ligand   receptor
##    <chr> <chr>       <chr>      <chr>    <chr>   
##  1 G1.T2 Fibroblast  Fibroblast TIMP1    CD63    
##  2 G1.T2 Fibroblast  Fibroblast FN1      ITGA5   
##  3 G1.T2 macrophages Fibroblast B2M      TAP1    
##  4 G1.T2 macrophages Fibroblast ITGB2    THY1    
##  5 G1.T2 Fibroblast  Fibroblast FN1      NT5E    
##  6 G1.T2 Fibroblast  Fibroblast TIMP3    ADAMTS4 
##  7 G1.T2 Fibroblast  Fibroblast SERPINE1 PLAU    
##  8 G1.T2 Fibroblast  Fibroblast SERPINE1 PLAUR   
##  9 G1.T2 Fibroblast  Fibroblast CCN1     ITGA5   
## 10 G1.T2 macrophages Fibroblast FN1      ITGA5   
## # ℹ 51 more rows
```


```r
prioritized_tbl_oi_network = prioritized_tbl_oi %>% inner_join(
  network$prioritized_lr_interactions)
prioritized_tbl_oi_network
## # A tibble: 61 × 8
##    group sender      receiver    ligand   receptor id                                    prioritization_score prioritization_rank
##    <chr> <chr>       <chr>       <chr>    <chr>    <chr>                                                <dbl>               <dbl>
##  1 G1.T2 Fibroblast  Fibroblast  SERPINE1 PLAU     SERPINE1_PLAU_Fibroblast_Fibroblast                  0.926                   2
##  2 G1.T2 macrophages macrophages IL15     IL15RA   IL15_IL15RA_macrophages_macrophages                  0.925                   3
##  3 G1.T2 macrophages CD4T        PTPRC    CD247    PTPRC_CD247_macrophages_CD4T                         0.919                   4
##  4 G1.T2 Fibroblast  Fibroblast  TGFBI    ITGA5    TGFBI_ITGA5_Fibroblast_Fibroblast                    0.911                   7
##  5 G1.T2 Fibroblast  Fibroblast  TIMP3    ADAMTS4  TIMP3_ADAMTS4_Fibroblast_Fibroblast                  0.895                  13
##  6 G1.T2 CD4T        Fibroblast  ITGA4    VCAM1    ITGA4_VCAM1_CD4T_Fibroblast                          0.894                  14
##  7 G1.T2 Fibroblast  Fibroblast  SERPINE1 PLAUR    SERPINE1_PLAUR_Fibroblast_Fibroblast                 0.886                  21
##  8 G1.T2 macrophages Fibroblast  ITGB2    ICAM1    ITGB2_ICAM1_macrophages_Fibroblast                   0.885                  22
##  9 G1.T2 macrophages macrophages HLA.DRB5 CD4      HLA.DRB5_CD4_macrophages_macrophages                 0.883                  24
## 10 G1.T2 macrophages macrophages LGALS9   SLC1A5   LGALS9_SLC1A5_macrophages_macrophages                0.877                  29
## # ℹ 51 more rows
```
…
