…
Let's now inspect some of the top interactions that got much higher scores in the E group


```r
comparison_table %>% 
  arrange(-difference_group1_vs_group2) %>% 
  filter(prioritization_score_group1 > 0.80)
## # A tibble: 635 × 5
##    group      id                                 prioritization_score_group1 prioritization_score_group2 difference_group1_vs_group2
##    <chr>      <chr>                                                    <dbl>                       <dbl>                       <dbl>
##  1 timepoint2 BST2_LILRB3_Fibroblast_macrophages                       0.870                       0.401                       0.469
##  2 timepoint1 COL1A1_ITGAV_Fibroblast_Fibroblast                       0.959                       0.507                       0.452
##  3 timepoint1 MIF_ACKR3_macrophages_Fibroblast                         0.821                       0.381                       0.439
##  4 timepoint1 POSTN_ITGB5_Fibroblast_Fibroblast                        0.952                       0.548                       0.403
##  5 timepoint1 POSTN_ITGAV_Fibroblast_Fibroblast                        0.936                       0.538                       0.398
##  6 timepoint1 INHBA_TGFBR3_Fibroblast_Fibroblast                       0.855                       0.463                       0.392
##  7 timepoint2 TNFSF10_TNFRSF10A_Fibroblast_CD4T                        0.805                       0.437                       0.368
##  8 timepoint1 COL1A1_ITGB1_Fibroblast_Fibroblast                       0.989                       0.622                       0.367
##  9 timepoint1 ADM_RAMP2_macrophages_Fibroblast                         0.818                       0.453                       0.365
## 10 timepoint1 POSTN_PTK7_Fibroblast_Fibroblast                         0.916                       0.551                       0.365
## # ℹ 625 more rows
```

Let's now inspect some of the top interactions that got much higher scores in the NE group


```r
comparison_table %>% 
  arrange(difference_group1_vs_group2) %>% 
  filter(prioritization_score_group2 > 0.80)
## # A tibble: 511 × 5
##    group      id                                   prioritization_score_group1 prioritization_score_group2 difference_group1_vs_group2
##    <chr>      <chr>                                                      <dbl>                       <dbl>                       <dbl>
##  1 timepoint1 C3_ITGB2_macrophages_macrophages                           0.452                       0.875                      -0.423
##  2 timepoint1 HLA.DMA_CD74_macrophages_macrophages                       0.493                       0.895                      -0.402
##  3 timepoint2 FN1_SDC2_Fibroblast_macrophages                            0.470                       0.868                      -0.398
##  4 timepoint1 C3_ITGAM_macrophages_macrophages                           0.476                       0.868                      -0.391
##  5 timepoint1 TNFSF10_TNFRSF10A_Fibroblast_CD4T                          0.468                       0.850                      -0.383
##  6 timepoint1 HLA.DMB_CD74_macrophages_macrophages                       0.487                       0.866                      -0.379
##  7 timepoint1 VCAM1_ITGB2_Fibroblast_macrophages                         0.499                       0.873                      -0.374
##  8 timepoint2 COL1A1_ITGAV_Fibroblast_Fibroblast                         0.492                       0.863                      -0.370
##  9 timepoint1 S100A8_ITGB2_macrophages_macrophages                       0.504                       0.866                      -0.362
## 10 timepoint2 GRP_FAP_Fibroblast_Fibroblast                              0.584                       0.946                      -0.362
## # ℹ 501 more rows
```
…
```r
colors_sender["Fibroblast"] = "pink" # the  original yellow background with white font is not very readable
network_graph = visualize_network(network, colors_sender)
network_graph$plot
```

<img src="multifactorial_analysis_BreastCancer_SACL_files/figure-html/unnamed-chunk-239-1.png" width="100%" />
Interestingly, we are only left with interactions that increase after therapy in the E group. This means that we don't find many intercellular regulatory connections for the other groups. In most cases, you will get this type of network for all conditions in your data.

Note: we can also use this network to further prioritize differential CCC interactions. Here we will assume that the most important LR interactions are the ones that are involved in this intercellular regulatory network. We can get these interactions as follows:

```r
network$prioritized_lr_interactions
## # A tibble: 76 × 5
##    group sender     receiver   ligand receptor
##    <chr> <chr>      <chr>      <chr>  <chr>   
##  1 G2.T2 Fibroblast Fibroblast POSTN  ITGB5   
##  2 G2.T2 Fibroblast Fibroblast POSTN  ITGAV   
##  3 G1.T1 Fibroblast Fibroblast COL5A1 ITGB1   
##  4 G1.T1 Fibroblast Fibroblast COL4A1 ITGAV   
##  5 G2.T2 Fibroblast Fibroblast POSTN  PTK7    
##  6 G1.T1 Fibroblast Fibroblast COL4A1 ITGB1   
##  7 G1.T1 Fibroblast Fibroblast COL5A1 ITGA1   
##  8 G1.T1 Fibroblast Fibroblast COL4A1 ITGA1   
##  9 G1.T1 Fibroblast Fibroblast MMP14  MMP13   
## 10 G1.T1 Fibroblast Fibroblast INHBA  TGFBR3  
## # ℹ 66 more rows
```


```r
prioritized_tbl_oi_network = prioritized_tbl_oi %>% inner_join(
  network$prioritized_lr_interactions)
prioritized_tbl_oi_network
## # A tibble: 76 × 8
##    group sender     receiver   ligand receptor id                                 prioritization_score prioritization_rank
##    <chr> <chr>      <chr>      <chr>  <chr>    <chr>                                             <dbl>               <dbl>
##  1 G2.T2 Fibroblast Fibroblast POSTN  ITGB5    POSTN_ITGB5_Fibroblast_Fibroblast                 0.989                   1
##  2 G2.T2 Fibroblast Fibroblast POSTN  ITGAV    POSTN_ITGAV_Fibroblast_Fibroblast                 0.986                   2
##  3 G1.T1 Fibroblast Fibroblast COL5A1 ITGB1    COL5A1_ITGB1_Fibroblast_Fibroblast                0.985                   3
##  4 G1.T1 Fibroblast Fibroblast COL4A1 ITGAV    COL4A1_ITGAV_Fibroblast_Fibroblast                0.980                   4
##  5 G2.T2 Fibroblast Fibroblast POSTN  PTK7     POSTN_PTK7_Fibroblast_Fibroblast                  0.980                   5
##  6 G1.T1 Fibroblast Fibroblast COL4A1 ITGB1    COL4A1_ITGB1_Fibroblast_Fibroblast                0.980                   6
##  7 G1.T1 Fibroblast Fibroblast COL5A1 ITGA1    COL5A1_ITGA1_Fibroblast_Fibroblast                0.975                   7
##  8 G1.T1 Fibroblast Fibroblast COL4A1 ITGA1    COL4A1_ITGA1_Fibroblast_Fibroblast                0.971                   8
##  9 G1.T1 Fibroblast Fibroblast MMP14  MMP13    MMP14_MMP13_Fibroblast_Fibroblast                 0.958                   9
## 10 G1.T1 Fibroblast Fibroblast INHBA  TGFBR3   INHBA_TGFBR3_Fibroblast_Fibroblast                0.953                  10
## # ℹ 66 more rows
```
…
