…
### Check DE results

The `DE_info` object contains both the default output as given by the
`muscat::pbDS()` function, and a cleaner output table (through
`muscat::resDS`).

Table with logFC and p-values for each gene-celltype-contrast:

``` r
DE_info$celltype_de$de_output_tidy
## # A tibble: 67,972 x 9
##    gene         cluster_id   logFC logCPM       F  p_val p_adj.loc p_adj contrast
##    <chr>        <chr>        <dbl>  <dbl>   <dbl>  <dbl>     <dbl> <dbl> <chr>   
##  1 RPS11        CAF        -0.0218   9.3  0.00697 0.935          1 0.993 High-Low
##  2 ELMO2        CAF         0.639    6.52 2.27    0.156          1 0.704 High-Low
##  3 CREB3L1      CAF         0.264    5.5  0.0617  0.808          1 0.974 High-Low
##  4 PNMA1        CAF        -1.01     6.51 4.01    0.0673         1 0.549 High-Low
##  5 MMP2         CAF         0.115    9.2  0.213   0.653          1 0.945 High-Low
##  6 TMEM216      CAF        -1.28     6.02 5.94    0.0304         1 0.424 High-Low
##  7 TRAF3IP2-AS1 CAF        -0.438    5.54 0.654   0.434          1 0.889 High-Low
##  8 ZHX3         CAF        -0.113    5.5  0.0391  0.846          1 0.979 High-Low
##  9 ERCC5        CAF        -0.066    5.85 0.0139  0.908          1 0.989 High-Low
## 10 APBB2        CAF        -0.211    6.46 0.232   0.638          1 0.942 High-Low
## # ... with 67,962 more rows
```
…
**User adaptation recommended**

``` r
empirical_pval = TRUE
if(empirical_pval == TRUE){
  DE_info_emp = get_empirical_pvals(DE_info$celltype_de$de_output_tidy)
} 
```

Table with logFC and p-values for each gene-celltype-contrast:

``` r
DE_info_emp$de_output_tidy_emp
## # A tibble: 67,972 x 11
##    gene         cluster_id   logFC logCPM       F  p_val p_adj.loc p_adj contrast  p_emp p_adj_emp
##    <chr>        <chr>        <dbl>  <dbl>   <dbl>  <dbl>     <dbl> <dbl> <chr>     <dbl>     <dbl>
##  1 RPS11        CAF        -0.0218   9.3  0.00697 0.935          1 0.993 High-Low 0.863      0.995
##  2 ELMO2        CAF         0.639    6.52 2.27    0.156          1 0.704 High-Low 0.128      0.994
##  3 CREB3L1      CAF         0.264    5.5  0.0617  0.808          1 0.974 High-Low 0.846      0.995
##  4 PNMA1        CAF        -1.01     6.51 4.01    0.0673         1 0.549 High-Low 0.0317     0.994
##  5 MMP2         CAF         0.115    9.2  0.213   0.653          1 0.945 High-Low 0.668      0.994
##  6 TMEM216      CAF        -1.28     6.02 5.94    0.0304         1 0.424 High-Low 0.0115     0.994
##  7 TRAF3IP2-AS1 CAF        -0.438    5.54 0.654   0.434          1 0.889 High-Low 0.335      0.994
##  8 ZHX3         CAF        -0.113    5.5  0.0391  0.846          1 0.979 High-Low 0.765      0.994
##  9 ERCC5        CAF        -0.066    5.85 0.0139  0.908          1 0.989 High-Low 0.833      0.994
## 10 APBB2        CAF        -0.211    6.46 0.232   0.638          1 0.942 High-Low 0.541      0.994
## # ... with 67,962 more rows
```
…
