…
```r
network_graph = visualize_network(network, colors_sender)
network_graph$plot
```

<img src="paired_analysis_SCC_files/figure-html/unnamed-chunk-190-1.png" width="100%" />

Interestingly, we can also use this network to further prioritize differential CCC interactions. Here we will assume that the most important LR interactions are the ones that are involved in this intercellular regulatory network. We can get these interactions as follows:


```r
network$prioritized_lr_interactions
## # A tibble: 40 × 5
##    group sender     receiver   ligand receptor
##    <chr> <chr>      <chr>      <chr>  <chr>   
##  1 Tumor Fibroblast Fibroblast COL1A1 ITGA1   
##  2 Tumor Fibroblast Fibroblast COL3A1 ITGA1   
##  3 Tumor Fibroblast Fibroblast COL1A1 DDR2    
##  4 Tumor Fibroblast Fibroblast POSTN  PTK7    
##  5 Tumor Fibroblast Fibroblast COL6A2 ITGA1   
##  6 Tumor Fibroblast Fibroblast COL3A1 DDR2    
##  7 Tumor Fibroblast Fibroblast COL6A1 ITGA1   
##  8 Tumor Fibroblast Fibroblast MMP1   F2R     
##  9 Tumor Fibroblast Fibroblast COL6A3 ITGA1   
## 10 Tumor Fibroblast Fibroblast COL4A1 ITGA1   
## # ℹ 30 more rows
```


```r
prioritized_tbl_oi_network = prioritized_tbl_oi %>% inner_join(
  network$prioritized_lr_interactions)
prioritized_tbl_oi_network
## # A tibble: 40 × 8
##    group sender     receiver   ligand receptor id                                 prioritization_score prioritization_rank
##    <chr> <chr>      <chr>      <chr>  <chr>    <chr>                                             <dbl>               <dbl>
##  1 Tumor Fibroblast Fibroblast COL5A1 ITGA1    COL5A1_ITGA1_Fibroblast_Fibroblast                0.958                   1
##  2 Tumor Fibroblast Fibroblast COL1A1 ITGA1    COL1A1_ITGA1_Fibroblast_Fibroblast                0.957                   2
##  3 Tumor Fibroblast Fibroblast WNT5A  FZD1     WNT5A_FZD1_Fibroblast_Fibroblast                  0.953                   3
##  4 Tumor Fibroblast Fibroblast COL4A1 ITGA1    COL4A1_ITGA1_Fibroblast_Fibroblast                0.950                   4
##  5 Tumor Fibroblast Fibroblast COL5A3 ITGA1    COL5A3_ITGA1_Fibroblast_Fibroblast                0.943                   6
##  6 Tumor Fibroblast Fibroblast POSTN  PTK7     POSTN_PTK7_Fibroblast_Fibroblast                  0.943                   7
##  7 Tumor Fibroblast Fibroblast COL6A3 ITGA1    COL6A3_ITGA1_Fibroblast_Fibroblast                0.943                   8
##  8 Tumor Fibroblast Fibroblast COL5A1 DDR2     COL5A1_DDR2_Fibroblast_Fibroblast                 0.941                   9
##  9 Tumor Fibroblast Fibroblast COL1A1 DDR2     COL1A1_DDR2_Fibroblast_Fibroblast                 0.940                  10
## 10 Tumor CLEC9A     CD8T       IL15   IL2RA    IL15_IL2RA_CLEC9A_CD8T                            0.940                  11
## # ℹ 30 more rows
```
…
